{
    "Action": "Aksi",
    "Address": "Alamat",
    "Administration": "Administrasi",
    "Building": "Bangunan",
    "Can be read by": "Dapat dibaca oleh",
    "Canceled": "Dibatalkan",
    "Card": "Kartu",
    "Cash": "Tunai",
    "City": "Kota",
    "Color": "Warna",
    "Create": "Buat",
    "Create News": "Buat Berita",
    "Date": "Tanggal",
    "Delete": "Hapus",
    "Delete Selected": "Hapus yang dipilih",
    "Edit": "Ubah",
    "Exchange": "Tukar",
    "First": "Pertama",
    "Forgot Password": "Lupa Password",
    "from": "dari",
    "Group": "Kelompok",
    "Group ID": "ID Kelompok",
    "Home": "Halaman Utama",
    "Incorrect Username or Password": "Username atau Password Anda Salah",
    "Last": "Terakhir",
    "Location": "Lokasi",
    "Login": "Masuk",
    "Logout": "Keluar",
    "Month": "Bulan",
    "Monthly": "Bulanan",
    "Full Name": "Nama Lengkap",
    "new": "baru",
    "Next": "Lanjut",
    "New Barrier": "Barrier Baru",
    "New Building": "Bangunan Baru",
    "New Rack": "Rak Baru",
    "New Role": "Hak Akses Baru",
    "New Room": "Ruangan Baru",
    "New User": "Pengguna Baru",
    "News": "Berita",
    "Position": "Jabatan",
    "Print": "Cetak",
    "Rack": "Rak",
    "Read by": "Dibaca oleh",
    "read more": "baca lebih lanjut",
    "Register": "Daftar",
    "Remember Me": "Ingat Saya",
    "Return": "Mengembalikan",
    "Role": "Hak Akses",
    "Room": "Ruangan",
    "Save": "Simpan",
    "Send notification to email": "Kirim melalui email",
    "Submit": "Kirim",
    "Time": "Waktu",
    "Title": "Judul",
    "to": "ke",
    "Update": "Perbarui",
    "User": "Pengguna",
    "View": "Lihat",
    "Visitor": "Tamu",
    "Welcome": "Selamat Datang",
    "Year": "Tahun",
    "Monday": "Senin",
    "Tuesday": "Selasa",
    "Wednesday": "Rabu",
    "Thursday": "Kamis",
    "Friday": "Jumat",
    "Saturday": "Sabtu",
    "Sunday": "Minggu"
}